{
    "words": [
        "ambrosys",
        "gitlab",
        "orval",
        "github",
        "mantik",
        "mlflow",
        "eurohpc",
        "bmbf",
        "unicore",
        "Mlproject",
        "Refetched"
    ],
    "flagWords": [],
    "language": "en,de",
    "ignoreWords": ["testid", "nextauth", "networkidle", "dataplane"],
    "version": "0.2"
}
